…
## group\_by()

``` r
weather_df %>% 
  group_by(name)
```

    ## # A tibble: 1,095 × 7
    ## # Groups:   name [3]
    ##    name           id          date        prcp  tmax  tmin month     
    ##    <chr>          <chr>       <date>     <dbl> <dbl> <dbl> <date>    
    ##  1 CentralPark_NY USW00094728 2017-01-01     0   8.9   4.4 2017-01-01
    ##  2 CentralPark_NY USW00094728 2017-01-02    53   5     2.8 2017-01-01
    ##  3 CentralPark_NY USW00094728 2017-01-03   147   6.1   3.9 2017-01-01
    ##  4 CentralPark_NY USW00094728 2017-01-04     0  11.1   1.1 2017-01-01
    ##  5 CentralPark_NY USW00094728 2017-01-05     0   1.1  -2.7 2017-01-01
    ##  6 CentralPark_NY USW00094728 2017-01-06    13   0.6  -3.8 2017-01-01
    ##  7 CentralPark_NY USW00094728 2017-01-07    81  -3.2  -6.6 2017-01-01
    ##  8 CentralPark_NY USW00094728 2017-01-08     0  -3.8  -8.8 2017-01-01
    ##  9 CentralPark_NY USW00094728 2017-01-09     0  -4.9  -9.9 2017-01-01
    ## 10 CentralPark_NY USW00094728 2017-01-10     0   7.8  -6   2017-01-01
    ## # … with 1,085 more rows
…
## grouped `mutate`

``` r
weather_df %>% 
  mutate(
    mean_tmax = mean(tmax, na.rm = TRUE)
  )
```

    ## # A tibble: 1,095 × 8
    ##    name           id          date        prcp  tmax  tmin month      mean_tmax
    ##    <chr>          <chr>       <date>     <dbl> <dbl> <dbl> <date>         <dbl>
    ##  1 CentralPark_NY USW00094728 2017-01-01     0   8.9   4.4 2017-01-01      18.1
    ##  2 CentralPark_NY USW00094728 2017-01-02    53   5     2.8 2017-01-01      18.1
    ##  3 CentralPark_NY USW00094728 2017-01-03   147   6.1   3.9 2017-01-01      18.1
    ##  4 CentralPark_NY USW00094728 2017-01-04     0  11.1   1.1 2017-01-01      18.1
    ##  5 CentralPark_NY USW00094728 2017-01-05     0   1.1  -2.7 2017-01-01      18.1
    ##  6 CentralPark_NY USW00094728 2017-01-06    13   0.6  -3.8 2017-01-01      18.1
    ##  7 CentralPark_NY USW00094728 2017-01-07    81  -3.2  -6.6 2017-01-01      18.1
    ##  8 CentralPark_NY USW00094728 2017-01-08     0  -3.8  -8.8 2017-01-01      18.1
    ##  9 CentralPark_NY USW00094728 2017-01-09     0  -4.9  -9.9 2017-01-01      18.1
    ## 10 CentralPark_NY USW00094728 2017-01-10     0   7.8  -6   2017-01-01      18.1
    ## # … with 1,085 more rows
…
